{
    "$schema": "https://raw.githubusercontent.com/microsoft/vcpkg-tool/main/docs/vcpkg.schema.json",
    "dependencies": [
        "nlohmann-json",
        "cli11",
        "fmt",
        "icu"
    ]
}